%YAML 1.1
%TAG !u! tag:unity3d.com,2011:
--- !u!1045 &1
EditorBuildSettings:
  m_ObjectHideFlags: 0
  serializedVersion: 2
  m_Scenes:
  - enabled: 1
    path: Assets/Scenes/Menu.unity
    guid: 5c267c4bc891bb9438ec791b9d3b00e5
  - enabled: 1
    path: Assets/Scenes/Game.unity
    guid: 9fc0d4010bbf28b4594072e72b8655ab
  - enabled: 1
    path: Assets/Scenes/Controls.unity
    guid: 5321541cfd4b86b4fa5ac392e19d133a
  - enabled: 1
    path: Assets/Scenes/GameOver.unity
    guid: 4035b529c2f9b834c8123b12edc33bb5
  - enabled: 1
    path: Assets/Scenes/GameWin.unity
    guid: a689b2271327a0148897b5fb95380cb7
  m_configObjects: {}
